fr\jmessenger\client\controller\MainController.class
fr\jmessenger\client\controller\RequestHandler.class
fr\jmessenger\client\controller\SyncThread.class
fr\jmessenger\client\MainClass.class
fr\jmessenger\client\model\AddFriend.class
fr\jmessenger\client\model\RoomElement.class
fr\jmessenger\client\model\User.class
fr\jmessenger\client\controller\MainController$1.class
fr\jmessenger\client\controller\LoginController.class
fr\jmessenger\client\model\Room.class
fr\jmessenger\client\model\Message.class
